{
	"info": {
		"_postman_id": "d63c57d1-4524-477f-88fc-722c92a90510",
		"name": "s36",
		"schema": "https://schema.getpostman.com/json/collection/v2.1.0/collection.json"
	},
	"item": [
		{
			"name": "get all tasks",
			"request": {
				"method": "GET",
				"header": [],
				"url": {
					"raw": "localhost:4000/tasks",
					"host": [
						"localhost"
					],
					"port": "4000",
					"path": [
						"tasks"
					]
				}
			},
			"response": []
		},
		{
			"name": "create task",
			"request": {
				"method": "POST",
				"header": [],
				"body": {
					"mode": "raw",
					"raw": "{\r\n    \"name\" : \"WALK\"\r\n}",
					"options": {
						"raw": {
							"language": "json"
						}
					}
				},
				"url": {
					"raw": "localhost:4000/tasks",
					"host": [
						"localhost"
					],
					"port": "4000",
					"path": [
						"tasks"
					]
				}
			},
			"response": []
		},
		{
			"name": "delete task",
			"request": {
				"method": "DELETE",
				"header": [],
				"url": {
					"raw": "localhost:4000/tasks/64789d4726e6f959dff708eb",
					"host": [
						"localhost"
					],
					"port": "4000",
					"path": [
						"tasks",
						"64789d4726e6f959dff708eb"
					]
				}
			},
			"response": []
		},
		{
			"name": "update task",
			"request": {
				"method": "PUT",
				"header": [],
				"body": {
					"mode": "raw",
					"raw": "{\r\n    \"name\": \"PLAY\"\r\n}",
					"options": {
						"raw": {
							"language": "json"
						}
					}
				},
				"url": {
					"raw": "localhost:4000/tasks/6479c7ed9c6c6db37d0521d0",
					"host": [
						"localhost"
					],
					"port": "4000",
					"path": [
						"tasks",
						"6479c7ed9c6c6db37d0521d0"
					]
				}
			},
			"response": []
		},
		{
			"name": "get specific task",
			"request": {
				"method": "GET",
				"header": [],
				"url": {
					"raw": "localhost:4000/tasks/6479c7f99c6c6db37d0521d2",
					"host": [
						"localhost"
					],
					"port": "4000",
					"path": [
						"tasks",
						"6479c7f99c6c6db37d0521d2"
					]
				}
			},
			"response": []
		},
		{
			"name": "changing status of task",
			"request": {
				"method": "PUT",
				"header": [],
				"body": {
					"mode": "raw",
					"raw": "",
					"options": {
						"raw": {
							"language": "json"
						}
					}
				},
				"url": {
					"raw": "localhost:4000/tasks/6479c7f99c6c6db37d0521d2/complete",
					"host": [
						"localhost"
					],
					"port": "4000",
					"path": [
						"tasks",
						"6479c7f99c6c6db37d0521d2",
						"complete"
					]
				}
			},
			"response": []
		}
	]
}